Forecasting Green Hydrogen Until 2050
…
Once the data is standardized, it is summarized by grouping
observations by year, ensuring that each year is represented by a single
value. This transformation allows for a clearer analysis of trends over
time.

# read in and filter dataset by "Dedicated renewable"
df <- read_excel("greenH2Data.xlsx")

filtered_df <- subset(df, Technology_electricity == "Dedicated renewable")
filtered_df

## # A tibble: 1,292 × 10
##    ProjectName             Country  Date Status Technology `Technology Comments`
##    <chr>                   <chr>   <dbl> <chr>  <chr>      <chr>                
##  1 H2GO Energy Park Oude-… NLD      2025 FID/C… Other Ele… Unknown PtX          
##  2 H2GO Energy Park Oude-… NLD      2030 Conce… Other Ele… Unknown PtX          
##  3 NortH2, phase 1         NLD      2030 Feasi… Other Ele… Unknown PtX          
##  4 Norsk e-Fuel Phase 1    NOR      2028 FID/C… SOEC       <NA>                 
##  5 Norsk e-Fuel Phase 2    NOR      2028 Feasi… SOEC       <NA>                 
##  6 Iberdrola - Puertollan… ESP      2022 Opera… PEM        <NA>                 
##  7 Green Hysland Mallorca… ESP      2022 Opera… PEM        <NA>                 
##  8 Fukushima Hydrogen Ene… JPN      2020 Opera… ALK        <NA>                 
##  9 Hydrospider - St Gallen CHE      2020 Opera… PEM        <NA>                 
## 10 Leuchtturmprojekt Powe… DEU      2020 Opera… PEM        <NA>                 
## # ℹ 1,282 more rows
## # ℹ 4 more variables: Technology_electricity <chr>,
## #   Technology_electricity_details <chr>, Product <chr>, AnnouncedSize <chr>
…
  # Return result list with MW and Production columns
  return(result)
}

# Apply parsing function to each entry in AnnouncedSize
parsed_data <- lapply(filtered_df$AnnouncedSize, parse_announced_size)

# Extract MW and Production columns from parsed data
filtered_df$MW <- sapply(parsed_data, function(x) x$MW)
filtered_df$Production <- sapply(parsed_data, function(x) x$Production)

# updated DataFrame
print(filtered_df)

## # A tibble: 1,198 × 12
##    ProjectName             Country  Date Status Technology `Technology Comments`
##    <chr>                   <chr>   <dbl> <chr>  <chr>      <chr>                
##  1 H2GO Energy Park Oude-… NLD      2025 FID/C… Other Ele… Unknown PtX          
##  2 H2GO Energy Park Oude-… NLD      2030 Conce… Other Ele… Unknown PtX          
##  3 NortH2, phase 1         NLD      2030 Feasi… Other Ele… Unknown PtX          
##  4 Norsk e-Fuel Phase 1    NOR      2028 FID/C… SOEC       <NA>                 
##  5 Norsk e-Fuel Phase 2    NOR      2028 Feasi… SOEC       <NA>                 
##  6 Iberdrola - Puertollan… ESP      2022 Opera… PEM        <NA>                 
##  7 Green Hysland Mallorca… ESP      2022 Opera… PEM        <NA>                 
##  8 Fukushima Hydrogen Ene… JPN      2020 Opera… ALK        <NA>                 
##  9 Hydrospider - St Gallen CHE      2020 Opera… PEM        <NA>                 
## 10 Leuchtturmprojekt Powe… DEU      2020 Opera… PEM        <NA>                 
## # ℹ 1,188 more rows
## # ℹ 6 more variables: Technology_electricity <chr>,
## #   Technology_electricity_details <chr>, Product <chr>, AnnouncedSize <chr>,
## #   MW <dbl>, Production <chr>
…
  } else {
    mw_equiv <- NA  # Keep NA if unable to parse
  }
  
  return(mw_equiv)
}

# Apply conversion function to  dataframe
filtered_df$MW_Equivalent <- mapply(convert_to_MW, filtered_df$MW, filtered_df$Production)

filtered_df

## # A tibble: 1,198 × 13
##    ProjectName             Country  Date Status Technology `Technology Comments`
##    <chr>                   <chr>   <dbl> <chr>  <chr>      <chr>                
##  1 H2GO Energy Park Oude-… NLD      2025 FID/C… Other Ele… Unknown PtX          
##  2 H2GO Energy Park Oude-… NLD      2030 Conce… Other Ele… Unknown PtX          
##  3 NortH2, phase 1         NLD      2030 Feasi… Other Ele… Unknown PtX          
##  4 Norsk e-Fuel Phase 1    NOR      2028 FID/C… SOEC       <NA>                 
##  5 Norsk e-Fuel Phase 2    NOR      2028 Feasi… SOEC       <NA>                 
##  6 Iberdrola - Puertollan… ESP      2022 Opera… PEM        <NA>                 
##  7 Green Hysland Mallorca… ESP      2022 Opera… PEM        <NA>                 
##  8 Fukushima Hydrogen Ene… JPN      2020 Opera… ALK        <NA>                 
##  9 Hydrospider - St Gallen CHE      2020 Opera… PEM        <NA>                 
## 10 Leuchtturmprojekt Powe… DEU      2020 Opera… PEM        <NA>                 
## # ℹ 1,188 more rows
## # ℹ 7 more variables: Technology_electricity <chr>,
## #   Technology_electricity_details <chr>, Product <chr>, AnnouncedSize <chr>,
## #   MW <dbl>, Production <chr>, MW_Equivalent <dbl>
…
filtered_df$MW_Equivalent <- as.numeric(filtered_df$MW_Equivalent)
filtered_df$MW_Equivalent <- as.integer(filtered_df$MW_Equivalent)

df = subset(filtered_df, select = c(Date, MW_Equivalent) )

# Summarize data and remove rows where Date is 2043 (NA)
new_dat <- filtered_df %>%
  group_by(Date) %>%
  summarise(MW_Equivalent = mean(MW_Equivalent)) %>%
  filter(Date != 2043)
new_dat

## # A tibble: 33 × 2
##     Date MW_Equivalent
##    <dbl>         <dbl>
##  1  1965        25    
##  2  2000       165    
##  3  2007         0    
##  4  2008         0    
##  5  2010         0    
##  6  2012         6    
##  7  2013         1    
##  8  2014         0    
##  9  2015         0.286
## 10  2016         0    
## # ℹ 23 more rows
…
